5947 3832
5898 1491
9449 8857
2259 8536
5216 7225
9434 7498
3679 3251
5806 3172
2001 3950
7011 8512
362 1405
2477 89
8348 3485
5136 4645
5275 4600
498 7873
8985 3639
7139 2755
184 5251
8049 2169
7228 4794
6501 8459
4340 5132
4461 595
5382 6585
455 531
2291 5862
426 5171
8804 3833
5931 6050
6438 2723
9335 2341
576 704
2905 3869
3984 6071
4217 8356
7776 6027
7056 3048
6006 1149
1554 9773
4686 8012
7919 4541
5496 8933
4248 3161
2588 1479
2732 808
3945 1599
4112 565
2270 205
5379 8655
9698 5553
4114 7226
1085 1372
7371 6906
2147 2046
9396 3206
2441 5404
4638 3592
5505 9597
8928 2252
8432 2617
5035 8821
9102 9430
5853 4143
892 4043
2015 2292
4292 7815
9984 6806
2021 15
9828 612
4923 2132
7855 6720
141 3149
5517 3416
7679 2150
7021 8298
72 1353
1046 7311
2235 954
9812 9429
1381 6126
937 3242
3079 4211
4743 7064
4763 7274
9950 7547
5805 5764
7077 1653
6323 9529
7630 6959
2656 3148
7685 3776
279 726
3414 312
586 2307
1068 3712
5281 4999
5094 4449
7954 3698
5809 2297
7456 4473
1650 6408
2551 2655
3003 2138
6806 9351
2165 2408
1555 3176
8114 9167
2064 7025
5619 2415
4364 7386
8323 9905
4649 4423
2502 7417
4092 4610
6198 6842
7156 6226
5350 2740
8704 924
6232 3906
287 4676
9602 911
566 271
9602 2802
2267 2879
4489 3820
7137 8281
523 4957
9924 9856
8770 189
6235 4196
1092 2712
6555 7161
5879 4763
1173 3208
289 661
2962 5551
9183 8423
2761 5965
669 4081
988 1598
7741 5922
5660 8139
279 9748
8059 7750
7910 4002
3719 2855
9719 8546
3088 1326
7605 6202
13209 65229
86983 90058
78493 92490
51189 52059
10406 34472
84594 28759
18565 78578
37229 92624
72597 83469
33116 19353
12615 76091
32670 17886
54330 48804
10517 44367
94121 73979
77997 31557
202 10217
84752 10992
73849 69764
22229 81286
48412 88688
89125 68628
27277 5797
17569 1573
6102 44685
86432 49994
28546 7061
41262 31474
56464 64221
22467 20617
73238 75663
76372 84154
21363 17249
69371 71542
40078 55197
54259 31812
88893 4183
43892 33294
62719 22680
3603 77265
77332 27498
65893 51687
74188 73251
74083 88370
63196 55536
69654 82309
74501 36310
85442 17473
53862 99597
18243 97534
636733 986634
326268 396364
449038 615001
426524 753201
799823 461794
636586 39434
132585 455728
138826 524394
655260 318963
548542 334363
326561 999618
570941 272740
530482 405216
331291 792021
722181 619621
479973 646214
83287 146145
603745 505427
954728 916384
300800 733984
343013 532311
39609 875649
473059 387491
830282 814658
804845 187819
814683 981932
970080 873258
729497 89474
312223 57880
511057 926489
411283 909981
535421 601361
665856 858196
350171 264208
798388 297669
97589 612552
785928 717366
644441 188376
99559 385440
299896 738979
82724 349370
969891 892508
835303 706427
683392 303100
206815 929619
979419 360419
439565 325137
937827 661219
309327 486062
779026 620573
